{"quotes":[{"text":"I'm selfish, impatient and a little insecure. I make mistakes, I am out of control and at times hard to handle. But if you can't handle me at my worst, then you sure as hell don't deserve me at my best.","author":"Marilyn Monroe","tags":["attributed-no-source","best","life","love","mistakes","out-of-control","truth","worst"],"id":0,"author_id":"Marilyn+Monroe"}
,{"text":"You've gotta dance like there's nobody watching,Love like you'll never be hurt,Sing like there's nobody listening,And live like it's heaven on earth.","author":"William W. Purkey","tags":["dance","heaven","hurt","inspirational","life","love","sing"],"id":1,"author_id":"William+W.+Purkey"}
,{"text":"You know you're in love when you can't fall asleep because reality is finally better than your dreams.","author":"Dr. Seuss","tags":["attributed-no-source","dreams","love","reality","sleep"],"id":2,"author_id":"Dr.+Seuss"}
],"pagination":{"page":1,"page_size":3,"total":484280,"pages":161427,"next":"?page=2\u0026page_size=3"}
}