{"quotes":[{"Text":"I'm selfish, impatient and a little insecure. i make mistakes, i am out of control and at times hard to handle. but if you can't handle me at my worst, then you sure as hell don't deserve me at my best.","Author":"Marilyn Monroe","Tags":["attributed-no-source","best","life","love","mistakes","out-of-control","truth","worst"],"ID":0,"AuthorID":"Marilyn+Monroe"},{"Text":"You've gotta dance like there's nobody watching,love like you'll never be hurt,sing like there's nobody listening,and live like it's heaven on earth.","Author":"William W. Purkey","Tags":["dance","heaven","hurt","inspirational","life","love","sing"],"ID":1,"AuthorID":"William+W.+Purkey"},{"Text":"You know you're in love when you can't fall asleep because reality is finally better than your dreams.","Author":"Dr. Seuss","Tags":["attributed-no-source","dreams","love","reality","sleep"],"ID":2,"AuthorID":"Dr.+Seuss"},{"Text":"A friend is someone who knows all about you and still loves you.","Author":"Elbert Hubbard","Tags":["friend","friendship","knowledge","love"],"ID":3,"AuthorID":"Elbert+Hubbard"},{"Text":"Darkness cannot drive out darkness: only light can do that. hate cannot drive out hate: only love can do that.","Author":"Martin Luther King Jr.","Tags":["darkness","drive-out","hate","inspirational","light","love","peace"],"ID":4,"AuthorID":"Martin+Luther+King+Jr."},{"Text":"We accept the love we think we deserve.","Author":"Stephen Chbosky","Tags":["inspirational","love"],"ID":5,"AuthorID":"Stephen+Chbosky"},{"Text":"Only once in your life, i truly believe, you find someone who can completely turn your world around. you tell them things that you’ve never shared with another soul and they absorb everything you say and actually want to hear more. you share hopes for the future, dreams that will never come true, goals that were never achieved and the many disappointments life has thrown at you. when something wonderful happens, you can’t wait to tell them about it, knowing they will share in your excitement. they are not embarrassed to cry with you when you are hurting or laugh with you when you make a fool of yourself. never do they hurt your feelings or make you feel like you are not good enough, but rather they build you up and show you the things about yourself that make you special and even beautiful. there is never any pressure, jealousy or competition but only a quiet calmness when they are around. you can be yourself and not worry about what they will think of you because they love you for who you are. the things that seem insignificant to most people such as a note, song or walk become invaluable treasures kept safe in your heart to cherish forever. memories of your childhood come back and are so clear and vivid it’s like being young again. colours seem brighter and more brilliant. laughter seems part of daily life where before it was infrequent or didn’t exist at all. a phone call or two during the day helps to get you through a long day’s work and always brings a smile to your face. in their presence, there’s no need for continuous conversation, but you find you’re quite content in just having them nearby. things that never interested you before become fascinating because you know they are important to this person who is so special to you. you think of this person on every occasion and in everything you do. simple things bring them to mind like a pale blue sky, gentle wind or even a storm cloud on the horizon. you open your heart knowing that there’s a chance it may be broken one day and in opening your heart, you experience a love and joy that you never dreamed possible. you find that being vulnerable is the only way to allow your heart to feel true pleasure that’s so real it scares you. you find strength in knowing you have a true friend and possibly a soul mate who will remain loyal to the end. life seems completely different, exciting and worthwhile. your only hope and security is in knowing that they are a part of your life.","Author":"Bob Marley","Tags":["love"],"ID":6,"AuthorID":"Bob+Marley"},{"Text":"It is better to be hated for what you are than to be loved for what you are not.","Author":"André Gide","Tags":["life","love"],"ID":7,"AuthorID":"Andr%C3%A9+Gide"},{"Text":"As he read, i fell in love the way you fall asleep: slowly, and then all at once.","Author":"John Green","Tags":["love"],"ID":8,"AuthorID":"John+Green"},{"Text":"The opposite of love is not hate, it's indifference. the opposite of art is not ugliness, it's indifference. the opposite of faith is not heresy, it's indifference. and the opposite of life is not death, it's indifference.","Author":"Elie Wiesel","Tags":["activism","apathy","hate","indifference","inspirational","love","opposite","philosophy"],"ID":9,"AuthorID":"Elie+Wiesel"}],"pagination":{"page":1,"page_size":10,"total":484280,"pages":48428,"next":"?page=2\u0026page_size=10"}}
